﻿客户账号,日期,项目,客户,实际展示,实际点击
test,2015-10-26,2015-10-26,滴滴大巴,2383142,7871,0
test,2015-10-27,2015-10-27,滴滴大巴,2643143,8422,0
test,2015-10-28,2015-10-28,滴滴大巴,2686143,8565,0
test,2015-10-29,2015-10-29,滴滴大巴,2633982,8241,0
